{
    "count": 2013,
    "next": "https://ll.thespacedevs.com/2.0.0/launch/?limit=10&offset=10",
    "previous": null,
    "results": [
	    {
            "id": "7e00f7c3-7648-450a-a69b-6bc94e317d04",
            "url": "https://ll.thespacedevs.com/2.2.0/launch/7e00f7c3-7648-450a-a69b-6bc94e317d04/",
            "launch_library_id": 1837,
            "slug": "vostok-k-sputnik-9",
            "name": "Vostok-K | Sputnik 9",
            "status": {
                "id": 3,
                "name": "Success"
            },
            "net": "1961-03-09T06:29:00Z",
            "window_end": "1961-03-09T06:29:00Z",
            "window_start": "1961-03-09T06:29:00Z",
            "inhold": false,
            "tbdtime": false,
            "tbddate": false,
            "probability": 0,
            "holdreason": "",
            "failreason": "",
            "hashtag": "",
            "launch_service_provider": {
                "id": 270,
                "url": "https://ll.thespacedevs.com/2.2.0/agencies/270/",
                "name": "Strategic Missile Troops",
                "type": null
            },
            "rocket": {
                "id": 2370,
                "configuration": {
                    "id": 103,
                    "launch_library_id": 139,
                    "url": "https://ll.thespacedevs.com/2.2.0/config/launcher/103/",
                    "name": "Vostok",
                    "family": "R-7",
                    "full_name": "Vostok-K",
                    "variant": "K"
                }
            },
            "mission": null,
            "pad": {
                "id": 32,
                "url": "https://ll.thespacedevs.com/2.2.0/pad/32/",
                "agency_id": null,
                "name": "1/5",
                "info_url": null,
                "wiki_url": "",
                "map_url": "https://www.google.com/maps/place/45°55'12.0\"N+63°20'31.2\"E",
                "latitude": "45.92",
                "longitude": "63.342",
                "location": {
                    "id": 15,
                    "url": "https://ll.thespacedevs.com/2.2.0/location/15/",
                    "name": "Baikonur Cosmodrome, Republic of Kazakhstan",
                    "country_code": "KAZ",
                    "map_image": "https://spacelaunchnow-prod-east.nyc3.digitaloceanspaces.com/media/launch_images/location_15_20200803142517.jpg",
                    "total_launch_count": 473,
                    "total_landing_count": 0
                },
                "map_image": "https://spacelaunchnow-prod-east.nyc3.digitaloceanspaces.com/media/launch_images/pad_32_20200803143513.jpg",
                "total_launch_count": 292
            },
            "webcast_live": false,
            "image": "https://spacelaunchnow-prod-east.nyc3.digitaloceanspaces.com/media/launcher_images/vostok_image_20191104130128.jpg",
            "infographic": null,
            "program": [
                {
                    "id": 9,
                    "url": "https://ll.thespacedevs.com/2.2.0/program/9/",
                    "name": "Vostok",
                    "description": "The Vostok programme was a Soviet human spaceflight project to put the first Soviet citizens into low Earth orbit and return them safely. Competing with the United States Project Mercury, it succeeded in placing the first human into space, Yuri Gagarin, in a single orbit in Vostok 1 on April 12, 1961.",
                    "agencies": [
                        {
                            "id": 66,
                            "url": "https://ll.thespacedevs.com/2.2.0/agencies/66/",
                            "name": "Soviet Space Program",
                            "type": "Government"
                        }
                    ],
                    "image_url": "https://spacelaunchnow-prod-east.nyc3.digitaloceanspaces.com/media/program_images/vostok_program_20210417063956.png",
                    "start_date": "1961-04-12T06:07:00Z",
                    "end_date": "1963-06-19T08:20:00Z",
                    "info_url": null,
                    "wiki_url": "https://en.wikipedia.org/wiki/Vostok_programme"
                }
            ]
        }
    ]
}