<?xml version='1.0' encoding='UTF-8'?>
<types:mule xmlns:types="http://www.mulesoft.org/schema/mule/types">
  <types:catalog>
    <types:type name="launchInfo_ex_json" format="json">
      <types:shape format="weave" example="launchInfoExample.json"><![CDATA[%dw 2.0

type launchInfo_ex_json = Array<{|  id: String,   name: String,   status: String,   launch_date: String,   failreason: String,   launch_service_provider: String,   mission: {|    name: String,     description: String,     "type": String,     orbit: String  |},   pad: {|    name: String,     location: {|      name: String,       country_code: String,       total_launch_count: Number {"typeId": "int"},       total_landing_count: Number {"typeId": "int"}    |}  |},   rocket_name: String|}> {"example": "[{\\\"id\\\":\\\"e3df2ecd-c239-472f-95e4-2b89b4f75800\\\",\\\"name\\\":\\\"Sputnik 8K74PS | Sputnik 1\\\",\\\"status\\\":\\\"Success\\\",\\\"launch_date\\\":\\\"1957-10-04\\\",\\\"failreason\\\":\\\"\\\",\\\"launch_service_provider\\\":\\\"Soviet Space Program\\\",\\\"mission\\\":{\\\"name\\\":\\\"Sputnik 1\\\",\\\"description\\\":\\\"First artificial satellite consisting of a 58 cm pressurized aluminium shell containing two 1 W transmitters for a total mass of 83.6 kg.\\\",\\\"type\\\":\\\"Test Flight\\\",\\\"orbit\\\":\\\"Low Earth Orbit\\\"},\\\"pad\\\":{\\\"name\\\":\\\"1\\/5\\\",\\\"location\\\":{\\\"name\\\":\\\"Baikonur Cosmodrome, Republic of Kazakhstan\\\",\\\"country_code\\\":\\\"KAZ\\\",\\\"total_launch_count\\\":0,\\\"total_landing_count\\\":0}},\\\"rocket_name\\\":\\\"Sputnik 8K74PS\\\"}]"}

]]></types:shape>
    </types:type>
    <types:type name="rocketInfo_ex_json" format="json">
      <types:shape format="weave" example="rocketInfoExample.json"><![CDATA[%dw 2.0

type rocketInfo_ex_json = Array<{|  name: String,   manufacturer: {|    name: String,     "type": String,     country_code: String  |},   family: String,   full_name: String,   variant: String,   reusable: Boolean,   image_url: String,   wiki_url: String|}> {"example": "[{\\\"name\\\":\\\"Angara 1.2\\\",\\\"manufacturer\\\":{\\\"name\\\":\\\"International Launch Services\\\",\\\"type\\\":\\\"Commercial\\\",\\\"country_code\\\":\\\"USA\\\"},\\\"family\\\":\\\"Angara\\\",\\\"full_name\\\":\\\"Angara 1.2\\\",\\\"variant\\\":\\\"1.2\\\",\\\"reusable\\\":false,\\\"image_url\\\":\\\"https:\\/\\/spacelaunchnow-prod-east.nyc3.digitaloceanspaces.com\\/media\\/launcher_images\\/angara25201.2_image_20190224012254.jpeg\\\",\\\"wiki_url\\\":\\\"https:\\/\\/en.wikipedia.org\\/wiki\\/Angara_(rocket_family)#Angara_1.2\\\"}]"}

]]></types:shape>
    </types:type>
    <types:type name="launch_payload_json" format="json">
      <types:shape format="weave" example="launches_payload_example.json"><![CDATA[%dw 2.0

type launch_payload_json = {|
  count: Number {"typeId": "int"}, 
  next: String, 
  previous: Null, 
  results: Array<{|    id: String,     url: String,     slug: String,     flightclub_url: Null,     r_spacex_api_id: Null,     name: String,     status: {|      id: Number {"typeId": "int"},       name: String,       abbrev: String,       description: String    |},     last_updated: String,     updates: Array<Any>, 
    net: String, 
    window_end: String, 
    window_start: String, 
    probability: Null, 
    holdreason: Null, 
    failreason: Null, 
    hashtag: Null, 
    launch_service_provider: {|
      id: Number {"typeId": "int"}, 
      url: String, 
      name: String, 
      featured: Boolean, 
      "type": String, 
      country_code: String, 
      abbrev: String, 
      description: String, 
      administrator: Null, 
      founding_year: String, 
      launchers: String, 
      spacecraft: String, 
      launch_library_url: String, 
      total_launch_count: Number {"typeId": "int"}, 
      consecutive_successful_launches: Number {"typeId": "int"}, 
      successful_launches: Number {"typeId": "int"}, 
      failed_launches: Number {"typeId": "int"}, 
      pending_launches: Number {"typeId": "int"}, 
      consecutive_successful_landings: Number {"typeId": "int"}, 
      successful_landings: Number {"typeId": "int"}, 
      failed_landings: Number {"typeId": "int"}, 
      attempted_landings: Number {"typeId": "int"}, 
      info_url: String, 
      wiki_url: String, 
      logo_url: String, 
      image_url: String, 
      nation_url: String
    |}, 
    rocket: {|
      id: Number {"typeId": "int"}, 
      configuration: {|
        id: Number {"typeId": "int"}, 
        url: String, 
        name: String, 
        description: String, 
        family: String, 
        full_name: String, 
        manufacturer: {|
          id: Number {"typeId": "int"}, 
          url: String, 
          name: String, 
          featured: Boolean, 
          "type": String, 
          country_code: String, 
          abbrev: String, 
          description: Null, 
          administrator: Null, 
          founding_year: String, 
          launchers: String, 
          spacecraft: String, 
          launch_library_url: String, 
          total_launch_count: Number {"typeId": "int"}, 
          consecutive_successful_launches: Number {"typeId": "int"}, 
          successful_launches: Number {"typeId": "int"}, 
          failed_launches: Number {"typeId": "int"}, 
          pending_launches: Number {"typeId": "int"}, 
          consecutive_successful_landings: Number {"typeId": "int"}, 
          successful_landings: Number {"typeId": "int"}, 
          failed_landings: Number {"typeId": "int"}, 
          attempted_landings: Number {"typeId": "int"}, 
          info_url: Null, 
          wiki_url: String, 
          logo_url: Null, 
          image_url: Null, 
          nation_url: Null
        |}, 
        program: Array<Any>, 
        variant: String, 
        alias: String, 
        min_stage: Number {"typeId": "int"}, 
        max_stage: Number {"typeId": "int"}, 
        length: Null, 
        diameter: Null, 
        maiden_flight: String, 
        launch_cost: Null, 
        launch_mass: Null, 
        leo_capacity: Null, 
        gto_capacity: Null, 
        to_thrust: Null, 
        apogee: Null, 
        vehicle_range: Null, 
        image_url: String, 
        info_url: Null, 
        wiki_url: Null, 
        total_launch_count: Number {"typeId": "int"}, 
        consecutive_successful_launches: Number {"typeId": "int"}, 
        successful_launches: Number {"typeId": "int"}, 
        failed_launches: Number {"typeId": "int"}, 
        pending_launches: Number {"typeId": "int"}
      |}, 
      launcher_stage: Array<Any>, 
      spacecraft_stage: Null
    |}, 
    mission: {|
      id: Number {"typeId": "int"}, 
      name: String, 
      description: String, 
      launch_designator: Null, 
      "type": String, 
      orbit: {|
        id: Number {"typeId": "int"}, 
        name: String, 
        abbrev: String
      |}
    |}, 
    pad: {|
      id: Number {"typeId": "int"}, 
      url: String, 
      agency_id: Null, 
      name: String, 
      info_url: Null, 
      wiki_url: String, 
      map_url: String, 
      latitude: String, 
      longitude: String, 
      location: {|
        id: Number {"typeId": "int"}, 
        url: String, 
        name: String, 
        country_code: String, 
        map_image: String, 
        total_launch_count: Number {"typeId": "int"}, 
        total_landing_count: Number {"typeId": "int"}
      |}, 
      map_image: String, 
      total_launch_count: Number {"typeId": "int"}
    |}, 
    infoURLs: Array<Any>, 
    vidURLs: Array<Any>, 
    webcast_live: Boolean, 
    image: String, 
    infographic: Null, 
    program: Array<Any>, 
    orbital_launch_attempt_count: Number {"typeId": "int"}, 
    location_launch_attempt_count: Number {"typeId": "int"}, 
    pad_launch_attempt_count: Number {"typeId": "int"}, 
    agency_launch_attempt_count: Number {"typeId": "int"}, 
    orbital_launch_attempt_count_year: Number {"typeId": "int"}, 
    location_launch_attempt_count_year: Number {"typeId": "int"}, 
    pad_launch_attempt_count_year: Number {"typeId": "int"}, 
    agency_launch_attempt_count_year: Number {"typeId": "int"}, 
    mission_patches: Array<Any>, 
    notifications_enabled: Boolean
  |}>
|} {"example": "{\\\"count\\\":6469,\\\"next\\\":\\\"https:\\/\\/ll.thespacedevs.com\\/2.2.0\\/launch\\/?limit=10&mode=detailed&offset=10\\\",\\\"previous\\\":null,\\\"results\\\":[{\\\"id\\\":\\\"e3df2ecd-c239-472f-95e4-2b89b4f75800\\\",\\\"url\\\":\\\"https:\\/\\/ll.thespacedevs.com\\/2.2.0\\/launch\\/e3df2ecd-c239-472f-95e4-2b89b4f75800\\/\\\",\\\"slug\\\":\\\"sputnik-8k74ps-sputnik-1\\\",\\\"flightclub_url\\\":null,\\\"r_spacex_api_id\\\":null,\\\"name\\\":\\\"Sputnik 8K74PS | Sputnik 1\\\",\\\"status\\\":{\\\"id\\\":3,\\\"name\\\":\\\"Launch Successful\\\",\\\"abbrev\\\":\\\"Success\\\",\\\"description\\\":\\\"The launch vehicle successfully inserted its payload(s) into the target orbit(s).\\\"},\\\"last_updated\\\":\\\"2021-08-31T20:43:53Z\\\",\\\"updates\\\":[],\\\"net\\\":\\\"1957-10-04T19:28:34Z\\\",\\\"window_end\\\":\\\"1957-10-04T19:28:34Z\\\",\\\"window_start\\\":\\\"1957-10-04T19:28:34Z\\\",\\\"probability\\\":null,\\\"holdreason\\\":null,\\\"failreason\\\":null,\\\"hashtag\\\":null,\\\"launch_service_provider\\\":{\\\"id\\\":66,\\\"url\\\":\\\"https:\\/\\/ll.thespacedevs.com\\/2.2.0\\/agencies\\/66\\/\\\",\\\"name\\\":\\\"Soviet Space Program\\\",\\\"featured\\\":false,\\\"type\\\":\\\"Government\\\",\\\"country_code\\\":\\\"RUS\\\",\\\"abbrev\\\":\\\"CCCP\\\",\\\"description\\\":\\\"The Soviet space program, was the national space program of the Union of Soviet Socialist Republics (USSR) actived from 1930s until disintegration of the Soviet Union in 1991.\\\\r\\\\n\\\\r\\\\nThe Soviet Union's space program was mainly based on the cosmonautic exploration of space and the development of the expandable launch vehicles, which had been split between many design bureaus competing against each other. Over its 60-years of history, the Russian program was responsible for a number of pioneering feats and accomplishments in the human space flight, including the first intercontinental ballistic missile (R-7), first satellite (Sputnik 1), first animal in Earth orbit (the dog Laika on Sputnik 2), first human in space and Earth orbit (cosmonaut Yuri Gagarin on Vostok 1), first woman in space and Earth orbit (cosmonaut Valentina Tereshkova on Vostok 6), first spacewalk (cosmonaut Alexei Leonov on Voskhod 2), first Moon impact (Luna 2), first image of the far side of the Moon (Luna 3) and unmanned lunar soft landing (Luna 9), first space rover (Lunokhod 1), first sample of lunar soil automatically extracted and brought to Earth (Luna 16), and first space station (Salyut 1). Further notable records included the first interplanetary probes: Venera 1 and Mars 1 to fly by Venus and Mars, respectively, Venera 3 and Mars 2 to impact the respective planet surface, and Venera 7 and Mars 3 to make soft landings on these planets.\\\",\\\"administrator\\\":null,\\\"founding_year\\\":\\\"1931\\\",\\\"launchers\\\":\\\"\\\",\\\"spacecraft\\\":\\\"\\\",\\\"launch_library_url\\\":\\\"https:\\/\\/launchlibrary.net\\/1.4\\/agency\\/66\\\",\\\"total_launch_count\\\":383,\\\"consecutive_successful_launches\\\":117,\\\"successful_launches\\\":368,\\\"failed_launches\\\":15,\\\"pending_launches\\\":0,\\\"consecutive_successful_landings\\\":0,\\\"successful_landings\\\":0,\\\"failed_landings\\\":0,\\\"attempted_landings\\\":0,\\\"info_url\\\":\\\"\\\",\\\"wiki_url\\\":\\\"http:\\/\\/en.wikipedia.org\\/wiki\\/Soviet_space_program\\\",\\\"logo_url\\\":\\\"https:\\/\\/spacelaunchnow-prod-east.nyc3.digitaloceanspaces.com\\/media\\/logo\\/soviet2520space2520program_logo_20191229081307.png\\\",\\\"image_url\\\":\\\"https:\\/\\/spacelaunchnow-prod-east.nyc3.digitaloceanspaces.com\\/media\\/agency_images\\/soviet2520space2520program_image_20191229081306.jpeg\\\",\\\"nation_url\\\":\\\"https:\\/\\/spacelaunchnow-prod-east.nyc3.digitaloceanspaces.com\\/media\\/agency_nation\\/soviet2520space2520program_nation_20191229081307.png\\\"},\\\"rocket\\\":{\\\"id\\\":3003,\\\"configuration\\\":{\\\"id\\\":468,\\\"url\\\":\\\"https:\\/\\/ll.thespacedevs.com\\/2.2.0\\/config\\/launcher\\/468\\/\\\",\\\"name\\\":\\\"Sputnik 8K74PS\\\",\\\"description\\\":\\\"An early Russian rocket designed by Sergei Korolev in the Soviet Union\\\",\\\"family\\\":\\\"Sputnik\\\",\\\"full_name\\\":\\\"Sputnik 8K74PS\\\",\\\"manufacturer\\\":{\\\"id\\\":1000,\\\"url\\\":\\\"https:\\/\\/ll.thespacedevs.com\\/2.2.0\\/agencies\\/1000\\/\\\",\\\"name\\\":\\\"Energia\\\",\\\"featured\\\":false,\\\"type\\\":\\\"Government\\\",\\\"country_code\\\":\\\"RUS\\\",\\\"abbrev\\\":\\\"OKB-1\\\",\\\"description\\\":null,\\\"administrator\\\":null,\\\"founding_year\\\":\\\"1946\\\",\\\"launchers\\\":\\\"\\\",\\\"spacecraft\\\":\\\"\\\",\\\"launch_library_url\\\":\\\"https:\\/\\/launchlibrary.net\\/1.4\\/agency\\/1000\\\",\\\"total_launch_count\\\":30,\\\"consecutive_successful_launches\\\":1,\\\"successful_launches\\\":22,\\\"failed_launches\\\":8,\\\"pending_launches\\\":0,\\\"consecutive_successful_landings\\\":0,\\\"successful_landings\\\":0,\\\"failed_landings\\\":0,\\\"attempted_landings\\\":0,\\\"info_url\\\":null,\\\"wiki_url\\\":\\\"https:\\/\\/en.wikipedia.org\\/wiki\\/Energia_(corporation)\\\",\\\"logo_url\\\":null,\\\"image_url\\\":null,\\\"nation_url\\\":null},\\\"program\\\":[],\\\"variant\\\":\\\"8K74PS\\\",\\\"alias\\\":\\\"\\\",\\\"min_stage\\\":1,\\\"max_stage\\\":1,\\\"length\\\":null,\\\"diameter\\\":null,\\\"maiden_flight\\\":\\\"1957-10-04\\\",\\\"launch_cost\\\":null,\\\"launch_mass\\\":null,\\\"leo_capacity\\\":null,\\\"gto_capacity\\\":null,\\\"to_thrust\\\":null,\\\"apogee\\\":null,\\\"vehicle_range\\\":null,\\\"image_url\\\":\\\"https:\\/\\/spacelaunchnow-prod-east.nyc3.digitaloceanspaces.com\\/media\\/launcher_images\\/sputnik_8k74ps_image_20210830185541.jpg\\\",\\\"info_url\\\":null,\\\"wiki_url\\\":null,\\\"total_launch_count\\\":2,\\\"consecutive_successful_launches\\\":2,\\\"successful_launches\\\":2,\\\"failed_launches\\\":0,\\\"pending_launches\\\":0},\\\"launcher_stage\\\":[],\\\"spacecraft_stage\\\":null},\\\"mission\\\":{\\\"id\\\":1430,\\\"name\\\":\\\"Sputnik 1\\\",\\\"description\\\":\\\"First artificial satellite consisting of a 58 cm pressurized aluminium shell containing two 1 W transmitters for a total mass of 83.6 kg.\\\",\\\"launch_designator\\\":null,\\\"type\\\":\\\"Test Flight\\\",\\\"orbit\\\":{\\\"id\\\":8,\\\"name\\\":\\\"Low Earth Orbit\\\",\\\"abbrev\\\":\\\"LEO\\\"}},\\\"pad\\\":{\\\"id\\\":32,\\\"url\\\":\\\"https:\\/\\/ll.thespacedevs.com\\/2.2.0\\/pad\\/32\\/\\\",\\\"agency_id\\\":null,\\\"name\\\":\\\"1\\/5\\\",\\\"info_url\\\":null,\\\"wiki_url\\\":\\\"\\\",\\\"map_url\\\":\\\"https:\\/\\/www.google.com\\/maps\\/place\\/45\u00C2\u00B055'12.0\\\\\\\"N+63\u00C2\u00B020'31.2\\\\\\\"E\\\",\\\"latitude\\\":\\\"45.92\\\",\\\"longitude\\\":\\\"63.342\\\",\\\"location\\\":{\\\"id\\\":15,\\\"url\\\":\\\"https:\\/\\/ll.thespacedevs.com\\/2.2.0\\/location\\/15\\/\\\",\\\"name\\\":\\\"Baikonur Cosmodrome, Republic of Kazakhstan\\\",\\\"country_code\\\":\\\"KAZ\\\",\\\"map_image\\\":\\\"https:\\/\\/spacelaunchnow-prod-east.nyc3.digitaloceanspaces.com\\/media\\/launch_images\\/location_15_20200803142517.jpg\\\",\\\"total_launch_count\\\":1522,\\\"total_landing_count\\\":0},\\\"map_image\\\":\\\"https:\\/\\/spacelaunchnow-prod-east.nyc3.digitaloceanspaces.com\\/media\\/launch_images\\/pad_32_20200803143513.jpg\\\",\\\"total_launch_count\\\":487},\\\"infoURLs\\\":[],\\\"vidURLs\\\":[],\\\"webcast_live\\\":false,\\\"image\\\":\\\"https:\\/\\/spacelaunchnow-prod-east.nyc3.digitaloceanspaces.com\\/media\\/launcher_images\\/sputnik_8k74ps_image_20210830185541.jpg\\\",\\\"infographic\\\":null,\\\"program\\\":[],\\\"orbital_launch_attempt_count\\\":1,\\\"location_launch_attempt_count\\\":1,\\\"pad_launch_attempt_count\\\":1,\\\"agency_launch_attempt_count\\\":1,\\\"orbital_launch_attempt_count_year\\\":1,\\\"location_launch_attempt_count_year\\\":1,\\\"pad_launch_attempt_count_year\\\":1,\\\"agency_launch_attempt_count_year\\\":1,\\\"mission_patches\\\":[],\\\"notifications_enabled\\\":true}]}"}

]]></types:shape>
    </types:type>
    <types:type name="rocket_payload_json" format="json">
      <types:shape format="weave" example="rockets_payload_example.json"><![CDATA[%dw 2.0

type rocket_payload_json = {|
  count: Number {"typeId": "int"}, 
  next: String, 
  previous: Null, 
  results: Array<{|    id: Number {"typeId": "int"},     url: String,     name: String,     manufacturer: {|      id: Number {"typeId": "int"},       url: String,       name: String,       featured: Boolean,       "type": String,       country_code: String,       abbrev: String,       description: String,       administrator: String,       founding_year: String,       launchers: String,       spacecraft: String,       parent: String,       image_url: Null    |},     program: Array<Any>, 
    family: String, 
    full_name: String, 
    variant: String, 
    reusable: Boolean, 
    image_url: String, 
    info_url: String, 
    wiki_url: String
  |}>
|} {"example": "{\\\"count\\\":461,\\\"next\\\":\\\"https:\\/\\/ll.thespacedevs.com\\/2.2.0\\/config\\/launcher\\/?limit=10&offset=10\\\",\\\"previous\\\":null,\\\"results\\\":[{\\\"id\\\":136,\\\"url\\\":\\\"https:\\/\\/ll.thespacedevs.com\\/2.2.0\\/config\\/launcher\\/136\\/\\\",\\\"name\\\":\\\"Angara 1.2\\\",\\\"manufacturer\\\":{\\\"id\\\":118,\\\"url\\\":\\\"https:\\/\\/ll.thespacedevs.com\\/2.2.0\\/agencies\\/118\\/\\\",\\\"name\\\":\\\"International Launch Services\\\",\\\"featured\\\":false,\\\"type\\\":\\\"Commercial\\\",\\\"country_code\\\":\\\"USA\\\",\\\"abbrev\\\":\\\"ILS\\\",\\\"description\\\":\\\"International Launch Services, Inc. (ILS) is a joint venture with exclusive rights to the worldwide sale of commercial Angara and Proton rocket launch services. Proton launches take place at the Baikonur Cosmodrome in Kazakhstan while Angara is planned to launch from the Plesetsk and Vostochny Cosmodromes in Russia.\\\",\\\"administrator\\\":\\\"Kirk Pysher\\\",\\\"founding_year\\\":\\\"1995\\\",\\\"launchers\\\":\\\"\\\",\\\"spacecraft\\\":\\\"\\\",\\\"parent\\\":\\\"Khrunichev State Research and Production Space Center\\\",\\\"image_url\\\":null},\\\"program\\\":[],\\\"family\\\":\\\"Angara\\\",\\\"full_name\\\":\\\"Angara 1.2\\\",\\\"variant\\\":\\\"1.2\\\",\\\"reusable\\\":false,\\\"image_url\\\":\\\"https:\\/\\/spacelaunchnow-prod-east.nyc3.digitaloceanspaces.com\\/media\\/launcher_images\\/angara25201.2_image_20190224012254.jpeg\\\",\\\"info_url\\\":\\\"http:\\/\\/www.ilslaunch.com\\/node\\/4680\\\",\\\"wiki_url\\\":\\\"https:\\/\\/en.wikipedia.org\\/wiki\\/Angara_(rocket_family)#Angara_1.2\\\"}]}"}

]]></types:shape>
    </types:type>
    <types:type name="generalInfo_ex_json" format="json">
      <types:shape format="weave" example="generalInfoExample.json"><![CDATA[%dw 2.0

type generalInfo_ex_json = Array<{|  launch_info: {|    id: String,     name: String,     status: String,     launch_date: String,     failreason: String,     launch_service_provider: String,     mission: {|      name: String,       description: String,       "type": String,       orbit: String    |},     pad: {|      name: String,       location: {|        name: String,         country_code: String,         total_launch_count: Number {"typeId": "int"},         total_landing_count: Number {"typeId": "int"}      |}    |},     rocket_name: String  |},   rocket_info: {|    name: String,     manufacturer: {|      name: String,       "type": String,       country_code: String    |},     family: String,     full_name: String,     variant: String,     reusable: Boolean,     image_url: String,     wiki_url: String  |}|}> {"example": "[{\\\"launch_info\\\":{\\\"id\\\":\\\"e3df2ecd-c239-472f-95e4-2b89b4f75800\\\",\\\"name\\\":\\\"Sputnik 8K74PS | Sputnik 1\\\",\\\"status\\\":\\\"Success\\\",\\\"launch_date\\\":\\\"1957-10-04\\\",\\\"failreason\\\":\\\"\\\",\\\"launch_service_provider\\\":\\\"Soviet Space Program\\\",\\\"mission\\\":{\\\"name\\\":\\\"Sputnik 1\\\",\\\"description\\\":\\\"First artificial satellite consisting of a 58 cm pressurized aluminium shell containing two 1 W transmitters for a total mass of 83.6 kg.\\\",\\\"type\\\":\\\"Test Flight\\\",\\\"orbit\\\":\\\"Low Earth Orbit\\\"},\\\"pad\\\":{\\\"name\\\":\\\"1\\/5\\\",\\\"location\\\":{\\\"name\\\":\\\"Baikonur Cosmodrome, Republic of Kazakhstan\\\",\\\"country_code\\\":\\\"KAZ\\\",\\\"total_launch_count\\\":0,\\\"total_landing_count\\\":0}},\\\"rocket_name\\\":\\\"Sputnik 8K74PS\\\"},\\\"rocket_info\\\":{\\\"name\\\":\\\"Angara 1.2\\\",\\\"manufacturer\\\":{\\\"name\\\":\\\"International Launch Services\\\",\\\"type\\\":\\\"Commercial\\\",\\\"country_code\\\":\\\"USA\\\"},\\\"family\\\":\\\"Angara\\\",\\\"full_name\\\":\\\"Angara 1.2\\\",\\\"variant\\\":\\\"1.2\\\",\\\"reusable\\\":false,\\\"image_url\\\":\\\"https:\\/\\/spacelaunchnow-prod-east.nyc3.digitaloceanspaces.com\\/media\\/launcher_images\\/angara25201.2_image_20190224012254.jpeg\\\",\\\"wiki_url\\\":\\\"https:\\/\\/en.wikipedia.org\\/wiki\\/Angara_(rocket_family)#Angara_1.2\\\"}}]"}

]]></types:shape>
    </types:type>
    <types:type name="agencies_payload_json" format="json">
      <types:shape format="weave" example="agencies_payload.json"><![CDATA[%dw 2.0

type agencies_payload_json = {|
  count: Number {"typeId": "int"}, 
  next: String, 
  previous: Null, 
  results: Array<{|    id: Number {"typeId": "int"},     url: String,     name: String,     featured: Boolean,     "type": String,     country_code: String,     abbrev: String,     description: String,     administrator: Null,     founding_year: String,     launchers: String,     spacecraft: String,     parent: Null,     image_url: Null  |}>
|} {"example": "{\\\"count\\\":270,\\\"next\\\":\\\"https:\\/\\/lldev.thespacedevs.com\\/2.2.0\\/agencies\\/?limit=10&offset=10\\\",\\\"previous\\\":null,\\\"results\\\":[{\\\"id\\\":225,\\\"url\\\":\\\"https:\\/\\/lldev.thespacedevs.com\\/2.2.0\\/agencies\\/225\\/\\\",\\\"name\\\":\\\"1worldspace\\\",\\\"featured\\\":false,\\\"type\\\":\\\"Commercial\\\",\\\"country_code\\\":\\\"USA\\\",\\\"abbrev\\\":\\\"1WSP\\\",\\\"description\\\":\\\"A now nonexistent satellite radio network company that operated two satellites to bring coverage with 62 stations to most of the Eastern Hemisphere. They went bankrupt in 2008. There has been a plan to relaunch the company, but it was announced in 2011, and nothing has been done since.\\\",\\\"administrator\\\":null,\\\"founding_year\\\":\\\"1960\\\",\\\"launchers\\\":\\\"None\\\",\\\"spacecraft\\\":\\\"AfriStar and AsiaStar\\\",\\\"parent\\\":null,\\\"image_url\\\":null},{\\\"id\\\":136,\\\"url\\\":\\\"https:\\/\\/lldev.thespacedevs.com\\/2.2.0\\/agencies\\/136\\/\\\",\\\"name\\\":\\\"Ad Astra Rocket Company\\\",\\\"featured\\\":false,\\\"type\\\":\\\"Commercial\\\",\\\"country_code\\\":\\\"USA\\\",\\\"abbrev\\\":\\\"AARC\\\",\\\"description\\\":\\\"Ad Astra Rocket Company is an American Space Company doing research and development in plasma propulsion technology. This involves using the technology of VASIMR developed in the late '70s, developed by the companies founder, Franklin Diaz. They have begun testing of their VF-200 model engine, built for interplanetary travel.\\\",\\\"administrator\\\":\\\"Dr. Franklin Chang Diaz\\\",\\\"founding_year\\\":\\\"2005\\\",\\\"launchers\\\":\\\"None\\\",\\\"spacecraft\\\":\\\"VX-200, VF-200\\\",\\\"parent\\\":null,\\\"image_url\\\":null}]}"}

]]></types:shape>
    </types:type>
    <types:type name="agency_output_json" format="json">
      <types:shape format="weave" example="agencies_output.json"><![CDATA[%dw 2.0

type agency_output_json = {|
  name: String, 
  "type": String, 
  country_code: String
|} {"example": "{\\\"name\\\":\\\"1worldspace\\\",\\\"type\\\":\\\"Commercial\\\",\\\"country_code\\\":\\\"USA\\\"}"}

]]></types:shape>
    </types:type>
  </types:catalog>
  <types:enrichment select="#a6079749-4c91-4e22-839e-f66a22880e28">
    <types:processor-declaration>
      <types:input-event>
        <types:message>
          <types:payload type="launch_payload_json"/>
        </types:message>
      </types:input-event>
      <types:output-event>
        <types:message>
          <types:payload type="launchInfo_ex_json"/>
        </types:message>
      </types:output-event>
    </types:processor-declaration>
  </types:enrichment>
  <types:enrichment select="#bb87f3e5-fe27-4a5f-b00f-e0244aade363">
    <types:processor-declaration>
      <types:input-event>
        <types:message>
          <types:payload type="rocket_payload_json"/>
        </types:message>
      </types:input-event>
      <types:output-event>
        <types:message>
          <types:payload type="rocketInfo_ex_json"/>
        </types:message>
      </types:output-event>
    </types:processor-declaration>
  </types:enrichment>
  <types:enrichment select="#fc11fe0c-5850-488e-81c7-2af1405dd3ca">
    <types:processor-declaration>
      <types:output-event>
        <types:message>
          <types:payload type="generalInfo_ex_json"/>
        </types:message>
      </types:output-event>
    </types:processor-declaration>
  </types:enrichment>
  <types:enrichment select="#406f04c9-bd65-4b9b-a94d-972877998b1e">
    <types:processor-declaration>
      <types:input-event>
        <types:message>
          <types:payload type="agencies_payload_json"/>
        </types:message>
      </types:input-event>
      <types:output-event>
        <types:message>
          <types:payload type="agency_output_json[]"/>
        </types:message>
      </types:output-event>
    </types:processor-declaration>
  </types:enrichment>
  <types:enrichment select="#07116e28-63ed-48ca-a4ac-ed2c6bfa9da9">
    <types:processor-declaration>
      <types:output-event>
        <types:message>
          <types:payload type="generalInfo_ex_json"/>
        </types:message>
      </types:output-event>
    </types:processor-declaration>
  </types:enrichment>
  <types:enrichment select="#e61e2c08-c4b9-45bc-8228-67a48129bc67">
    <types:processor-declaration>
      <types:input-event>
        <types:message>
          <types:payload type="launch_payload_json"/>
        </types:message>
      </types:input-event>
      <types:output-event>
        <types:message>
          <types:payload type="launchInfo_ex_json"/>
        </types:message>
      </types:output-event>
    </types:processor-declaration>
  </types:enrichment>
  <types:enrichment select="#7072f3c2-e259-48bb-b8cc-e4d8d5b3ff55">
    <types:processor-declaration>
      <types:input-event>
        <types:message>
          <types:payload type="launch_payload_json"/>
        </types:message>
      </types:input-event>
    </types:processor-declaration>
  </types:enrichment>
</types:mule>